tests2_feb2022/test7_formal_verification_timer_restructured_formalTests_thatDelayWorks/engine_0/trace.vcd
$version Generated by Yosys-SMTBMC $end
$timescale 1ns $end
$var integer 32 t smt_step $end
$var event 1 ! smt_clock $end
$scope module top $end
$var wire 1 n0 _ui__done $end
$var wire 12 n1 _ui__load $end
$var wire 1 n2 _ui__tb_fanin_flags__in_done $end
$var wire 1 n3 _ui__tb_fanin_flags__in_start $end
$var wire 1 n4 clk $end
$var wire 2 n5 delay_fsm_state $end
$scope module delayer $end
$var wire 1 n6 _ui__done $end
$var wire 1 n7 _ui__inactive $end
$var wire 12 n8 _ui__load $end
$var wire 1 n9 clk $end
$var wire 12 n10 countdown $end
$var wire 1 n11 rst $end
$var wire 1 n12 ui__done $end
$var wire 1 n13 ui__inactive $end
$var wire 12 n14 ui__load $end
$upscope $end
$var wire 1 n15 delayer_ui__done $end
$var wire 1 n16 delayer_ui__inactive $end
$var wire 12 n17 delayer_ui__load $end
$var wire 1 n18 init $end
$var wire 1 n19 rst $end
$var wire 1 n20 timer_done $end
$var wire 1 n21 timer_ought_to_finish $end
$var wire 12 n22 ui__load $end
$var wire 1 n23 ui__tb_fanout_flags__trigger $end
$upscope $end
$enddefinitions $end
#0
1!
b00000000000000000000000000000000 t
b1 n4
b1 n9
b0 n0
b000000000000 n1
b0 n2
b0 n3
b00 n5
b0 n6
b0 n7
b000000000000 n8
b000000000000 n10
b0 n11
b0 n12
b0 n13
b000000000000 n14
b0 n15
b0 n16
b000000000000 n17
b1 n18
b0 n19
b0 n20
b0 n21
b000000000000 n22
b0 n23
#5
b0 n4
b0 n9
#10
1!
b00000000000000000000000000000001 t
b1 n4
b1 n9
b0 n0
b000000010000 n1
b0 n2
b0 n3
b01 n5
b0 n6
b1 n7
b000000000000 n8
b000000000000 n10
b0 n11
b0 n12
b0 n13
b000000000000 n14
b0 n15
b0 n16
b000000000000 n17
b0 n18
b0 n19
b0 n20
b0 n21
b000000000000 n22
b0 n23
#15
b0 n4
b0 n9
#20
1!
b00000000000000000000000000000010 t
b1 n4
b1 n9
b0 n0
b000000000000 n1
b0 n2
b0 n3
b10 n5
b0 n6
b1 n7
b000000000000 n8
b000000000000 n10
b0 n11
b0 n12
b1 n13
b000000010000 n14
b0 n15
b1 n16
b000000010000 n17
b0 n18
b0 n19
b0 n20
b0 n21
b000000000001 n22
b0 n23
#25
b0 n4
b0 n9
#30
1!
b00000000000000000000000000000011 t
b1 n4
b1 n9
b0 n0
b000000000001 n1
b0 n2
b0 n3
b10 n5
b0 n6
b1 n7
b000000010000 n8
b000000000000 n10
b0 n11
b0 n12
b1 n13
b000000000000 n14
b0 n15
b1 n16
b000000000000 n17
b0 n18
b0 n19
b0 n20
b0 n21
b000000000000 n22
b0 n23
#35
b0 n4
b0 n9
#40
1!
b00000000000000000000000000000100 t
b1 n4
b1 n9
b0 n0
b000000000000 n1
b0 n2
b0 n3
b10 n5
b0 n6
b1 n7
b000000000000 n8
b000000010000 n10
b0 n11
b0 n12
b1 n13
b000000000001 n14
b0 n15
b1 n16
b000000000001 n17
b0 n18
b0 n19
b0 n20
b0 n21
b000000010000 n22
b0 n23
#45
b0 n4
b0 n9
#50
1!
b00000000000000000000000000000101 t
b1 n4
b1 n9
b0 n0
b000000010000 n1
b0 n2
b0 n3
b10 n5
b0 n6
b0 n7
b000000000001 n8
b000000001111 n10
b0 n11
b0 n12
b1 n13
b000000000000 n14
b0 n15
b1 n16
b000000000000 n17
b0 n18
b0 n19
b0 n20
b0 n21
b000000000000 n22
b0 n23
#55
b0 n4
b0 n9
#60
1!
b00000000000000000000000000000110 t
b1 n4
b1 n9
b0 n0
b000000000000 n1
b0 n2
b0 n3
b10 n5
b0 n6
b0 n7
b000000000000 n8
b000000000001 n10
b0 n11
b0 n12
b0 n13
b000000010000 n14
b0 n15
b0 n16
b000000010000 n17
b0 n18
b0 n19
b0 n20
b0 n21
b000000000000 n22
b0 n23
#65
b0 n4
b0 n9
#70
1!
b00000000000000000000000000000111 t
b1 n4
b1 n9
b0 n0
b000000000000 n1
b0 n2
b0 n3
b10 n5
b1 n6
b0 n7
b000000010000 n8
b000000000000 n10
b0 n11
b0 n12
b0 n13
b000000000000 n14
b0 n15
b0 n16
b000000000000 n17
b0 n18
b0 n19
b0 n20
b0 n21
b000000000000 n22
b0 n23
#75
b0 n4
b0 n9
#80
1!
b00000000000000000000000000001000 t
b1 n4
b1 n9
b0 n0
b000000000000 n1
b0 n2
b0 n3
b10 n5
b0 n6
b1 n7
b000000000000 n8
b000000010000 n10
b0 n11
b1 n12
b0 n13
b000000000000 n14
b1 n15
b0 n16
b000000000000 n17
b0 n18
b0 n19
b0 n20
b0 n21
b000000000000 n22
b0 n23
#85
b0 n4
b0 n9
#90
1!
b00000000000000000000000000001001 t
b1 n4
b1 n9
b1 n0
b000000000000 n1
b0 n2
b0 n3
b10 n5
b0 n6
b0 n7
b000000000000 n8
b000000001111 n10
b0 n11
b0 n12
b1 n13
b000000000000 n14
b0 n15
b1 n16
b000000000000 n17
b0 n18
b0 n19
b1 n20
b0 n21
b000000000000 n22
b0 n23
#95
b0 n4
b0 n9
#100
1!
b00000000000000000000000000001010 t
b1 n4
b1 n9
b0 n0
b000000000000 n1
b0 n2
b0 n3
b10 n5
b0 n6
b0 n7
b000000000000 n8
b000000001110 n10
b0 n11
b0 n12
b0 n13
b000000000000 n14
b0 n15
b0 n16
b000000000000 n17
b0 n18
b0 n19
b0 n20
b0 n21
b000000000000 n22
b0 n23
#105
b0 n4
b0 n9
#110
1!
b00000000000000000000000000001011 t
b1 n4
b1 n9
