tests2_feb2022/test6_formal_verification_timer_tryToTest_Testbench/engine_0/trace0.vcd
$version Generated by Yosys-SMTBMC $end
$timescale 1ns $end
$var integer 32 t smt_step $end
$var event 1 ! smt_clock $end
$scope module top $end
$scope module dut $end
$var wire 32 n0 debug__count $end
$var wire 32 n1 debug__count$4 $end
$scope module delayer $end
$var wire 32 n2 counter_out $end
$var wire 1 n3 done $end
$var wire 2 n4 fsm_state $end
$var wire 32 n5 reload $end
$var wire 1 n6 start $end
$var wire 1 n7 sync_1e6_clk $end
$var wire 1 n8 sync_1e6_rst $end
$upscope $end
$var wire 32 n9 delayer_counter_out $end
$var wire 1 n10 delayer_done $end
$var wire 1 n11 delayer_start $end
$var wire 32 n12 reload $end
$var wire 1 n13 sync_1e6_clk $end
$var wire 1 n14 sync_1e6_rst $end
$var wire 1 n15 ui__active $end
$var wire 1 n16 ui__active$3 $end
$var wire 1 n17 ui__done $end
$var wire 1 n18 ui__done$2 $end
$var wire 1 n19 ui__start $end
$var wire 1 n20 ui__start$1 $end
$upscope $end
$var wire 32 n21 dut_debug__count $end
$var wire 1 n22 dut_ui__active $end
$var wire 1 n23 dut_ui__done $end
$var wire 1 n24 dut_ui__start $end
$var wire 32 n25 reload $end
$var wire 1 n26 sync_1e6_clk $end
$var wire 1 n27 sync_1e6_rst $end
$var wire 1 n28 ui__done$2 $end
$var wire 1 n29 ui__start $end
$var wire 1 n30 ui__start$1 $end
$upscope $end
$enddefinitions $end
#0
1!
b00000000000000000000000000000000 t
b1 n7
b1 n13
b1 n26
b00000000000000000000000000000000 n0
b00000000000000000000000000000000 n1
b00000000000000000000000000000000 n2
b0 n3
b01 n4
b10000000000000000000000000000000 n5
b0 n6
b0 n8
b00000000000000000000000000000000 n9
b0 n10
b0 n11
b10000000000000000000000000000000 n12
b0 n14
b0 n15
b0 n16
b0 n17
b0 n18
b0 n19
b0 n20
b00000000000000000000000000000000 n21
b0 n22
b0 n23
b0 n24
b10000000000000000000000000000000 n25
b0 n27
b0 n28
b1 n29
b0 n30
#5
b0 n7
b0 n13
b0 n26
#10
1!
b00000000000000000000000000000001 t
b1 n7
b1 n13
b1 n26
b00000000000000000000000000000000 n0
b00000000000000000000000000000000 n1
b00000000000000000000000001100100 n2
b0 n3
b01 n4
b10000000000000000000000000000000 n5
b0 n6
b0 n8
b00000000000000000000000001100100 n9
b0 n10
b0 n11
b10000000000000000000000000000000 n12
b0 n14
b0 n15
b1 n16
b0 n17
b0 n18
b0 n19
b0 n20
b00000000000000000000000000000000 n21
b0 n22
b0 n23
b0 n24
b10000000000000000000000000000000 n25
b0 n27
b0 n28
b0 n29
b1 n30
#15
b0 n7
b0 n13
b0 n26
#20
1!
b00000000000000000000000000000010 t
b1 n7
b1 n13
b1 n26
b00000000000000000000000000000000 n0
b00000000000000000000000001100100 n1
b00000000000000000000000001100100 n2
b0 n3
b01 n4
b10000000000000000000000000000000 n5
b0 n6
b0 n8
b00000000000000000000000001100100 n9
b0 n10
b0 n11
b10000000000000000000000000000000 n12
b0 n14
b1 n15
b0 n16
b0 n17
b0 n18
b1 n19
b0 n20
b00000000000000000000000000000000 n21
b1 n22
b0 n23
b1 n24
b10000000000000000000000000000000 n25
b0 n27
b0 n28
b0 n29
b0 n30
#25
b0 n7
b0 n13
b0 n26
#30
1!
b00000000000000000000000000000011 t
b1 n7
b1 n13
b1 n26
b00000000000000000000000001100100 n0
b00000000000000000000000001100100 n1
b00000000000000000000000001100100 n2
b0 n3
b01 n4
b10000000000000000000000000000000 n5
b0 n6
b0 n8
b00000000000000000000000001100100 n9
b0 n10
b0 n11
b10000000000000000000000000000000 n12
b0 n14
b0 n15
b0 n16
b0 n17
b0 n18
b0 n19
b1 n20
b00000000000000000000000001100100 n21
b0 n22
b0 n23
b0 n24
b10000000000000000000000000000000 n25
b0 n27
b0 n28
b0 n29
b0 n30
#35
b0 n7
b0 n13
b0 n26
#40
1!
b00000000000000000000000000000100 t
b1 n7
b1 n13
b1 n26
b00000000000000000000000001100100 n0
b00000000000000000000000001100100 n1
b00000000000000000000000001100100 n2
b0 n3
b01 n4
b10000000000000000000000000000000 n5
b1 n6
b0 n8
b00000000000000000000000001100100 n9
b0 n10
b1 n11
b10000000000000000000000000000000 n12
b0 n14
b0 n15
b0 n16
b0 n17
b0 n18
b0 n19
b0 n20
b00000000000000000000000001100100 n21
b0 n22
b0 n23
b0 n24
b10000000000000000000000000000000 n25
b0 n27
b0 n28
b1 n29
b0 n30
#45
b0 n7
b0 n13
b0 n26
#50
1!
b00000000000000000000000000000101 t
b1 n7
b1 n13
b1 n26
b00000000000000000000000001100100 n0
b00000000000000000000000001100100 n1
b00000000000000000000000001100011 n2
b0 n3
b10 n4
b10000000000000000000000000000000 n5
b0 n6
b0 n8
b00000000000000000000000001100011 n9
b0 n10
b0 n11
b10000000000000000000000000000000 n12
b0 n14
b0 n15
b0 n16
b0 n17
b0 n18
b0 n19
b0 n20
b00000000000000000000000001100100 n21
b0 n22
b0 n23
b0 n24
b10000000000000000000000000000000 n25
b0 n27
b0 n28
b0 n29
b1 n30
#55
b0 n7
b0 n13
b0 n26
#60
1!
b00000000000000000000000000000110 t
b1 n7
b1 n13
b1 n26
b00000000000000000000000001100100 n0
b00000000000000000000000001100011 n1
b00000000000000000000000001100010 n2
b0 n3
b10 n4
b00000000000000000000000000000000 n5
b0 n6
b0 n8
b00000000000000000000000001100010 n9
b0 n10
b0 n11
b00000000000000000000000000000000 n12
b0 n14
b0 n15
b1 n16
b0 n17
b0 n18
b1 n19
b0 n20
b00000000000000000000000001100100 n21
b0 n22
b0 n23
b1 n24
b00000000000000000000000000000000 n25
b0 n27
b0 n28
b0 n29
b0 n30
#65
b0 n7
b0 n13
b0 n26
#70
1!
b00000000000000000000000000000111 t
b1 n7
b1 n13
b1 n26
b00000000000000000000000001100011 n0
b00000000000000000000000001100010 n1
b00000000000000000000000001100001 n2
b0 n3
b10 n4
b00000000000000000000000000000011 n5
b0 n6
b0 n8
b00000000000000000000000001100001 n9
b0 n10
b0 n11
b00000000000000000000000000000011 n12
b0 n14
b1 n15
b1 n16
b0 n17
b0 n18
b0 n19
b1 n20
b00000000000000000000000001100011 n21
b1 n22
b0 n23
b0 n24
b00000000000000000000000000000011 n25
b0 n27
b0 n28
b0 n29
b0 n30
#75
b0 n7
b0 n13
b0 n26
#80
1!
b00000000000000000000000000001000 t
b1 n7
b1 n13
b1 n26
b00000000000000000000000001100010 n0
b00000000000000000000000001100001 n1
b00000000000000000000000001100000 n2
b0 n3
b10 n4
b00000000000000000000000000000000 n5
b1 n6
b0 n8
b00000000000000000000000001100000 n9
b0 n10
b1 n11
b00000000000000000000000000000000 n12
b0 n14
b1 n15
b1 n16
b0 n17
b0 n18
b0 n19
b0 n20
b00000000000000000000000001100010 n21
b1 n22
b0 n23
b0 n24
b00000000000000000000000000000000 n25
b0 n27
b0 n28
b1 n29
b0 n30
#85
b0 n7
b0 n13
b0 n26
#90
1!
b00000000000000000000000000001001 t
b1 n7
b1 n13
b1 n26
b00000000000000000000000001100001 n0
b00000000000000000000000001100000 n1
b00000000000000000000000001011111 n2
b0 n3
b10 n4
b00000000000000000000000000000011 n5
b0 n6
b0 n8
b00000000000000000000000001011111 n9
b0 n10
b0 n11
b00000000000000000000000000000011 n12
b0 n14
b1 n15
b1 n16
b0 n17
b0 n18
b0 n19
b0 n20
b00000000000000000000000001100001 n21
b1 n22
b0 n23
b0 n24
b00000000000000000000000000000011 n25
b0 n27
b0 n28
b0 n29
b1 n30
#95
b0 n7
b0 n13
b0 n26
#100
1!
b00000000000000000000000000001010 t
b1 n7
b1 n13
b1 n26
b00000000000000000000000001100000 n0
b00000000000000000000000001011111 n1
b00000000000000000000000001011110 n2
b0 n3
b10 n4
b00000000000000000000000001000000 n5
b0 n6
b0 n8
b00000000000000000000000001011110 n9
b0 n10
b0 n11
b00000000000000000000000001000000 n12
b0 n14
b1 n15
b1 n16
b0 n17
b0 n18
b1 n19
b0 n20
b00000000000000000000000001100000 n21
b1 n22
b0 n23
b1 n24
b00000000000000000000000001000000 n25
b0 n27
b0 n28
b0 n29
b0 n30
#105
b0 n7
b0 n13
b0 n26
#110
1!
b00000000000000000000000000001011 t
b1 n7
b1 n13
b1 n26
b00000000000000000000000001011111 n0
b00000000000000000000000001011110 n1
b00000000000000000000000001011101 n2
b0 n3
b10 n4
b00000000000000000000000000000000 n5
b0 n6
b0 n8
b00000000000000000000000001011101 n9
b0 n10
b0 n11
b00000000000000000000000000000000 n12
b0 n14
b1 n15
b1 n16
b0 n17
b0 n18
b0 n19
b1 n20
b00000000000000000000000001011111 n21
b1 n22
b0 n23
b0 n24
b00000000000000000000000000000000 n25
b0 n27
b0 n28
b0 n29
b0 n30
#115
b0 n7
b0 n13
b0 n26
#120
1!
b00000000000000000000000000001100 t
b1 n7
b1 n13
b1 n26
b00000000000000000000000001011110 n0
b00000000000000000000000001011101 n1
b00000000000000000000000001011100 n2
b0 n3
b10 n4
b00000000000000000000000000000000 n5
b1 n6
b0 n8
b00000000000000000000000001011100 n9
b0 n10
b1 n11
b00000000000000000000000000000000 n12
b0 n14
b1 n15
b1 n16
b0 n17
b0 n18
b0 n19
b0 n20
b00000000000000000000000001011110 n21
b1 n22
b0 n23
b0 n24
b00000000000000000000000000000000 n25
b0 n27
b0 n28
b0 n29
b0 n30
#125
b0 n7
b0 n13
b0 n26
#130
1!
b00000000000000000000000000001101 t
b1 n7
b1 n13
b1 n26
b00000000000000000000000001011101 n0
b00000000000000000000000001011100 n1
b00000000000000000000000001011011 n2
b0 n3
b10 n4
b00000000000000000000000000000000 n5
b0 n6
b0 n8
b00000000000000000000000001011011 n9
b0 n10
b0 n11
b00000000000000000000000000000000 n12
b0 n14
b1 n15
b1 n16
b0 n17
b0 n18
b0 n19
b0 n20
b00000000000000000000000001011101 n21
b1 n22
b0 n23
b0 n24
b00000000000000000000000000000000 n25
b0 n27
b0 n28
b0 n29
b0 n30
#135
b0 n7
b0 n13
b0 n26
#140
1!
b00000000000000000000000000001110 t
b1 n7
b1 n13
b1 n26
b00000000000000000000000001011100 n0
b00000000000000000000000001011011 n1
b00000000000000000000000001011010 n2
b0 n3
b10 n4
b00000000000000000000000000000011 n5
b0 n6
b0 n8
b00000000000000000000000001011010 n9
b0 n10
b0 n11
b00000000000000000000000000000011 n12
b0 n14
b1 n15
b1 n16
b0 n17
b0 n18
b0 n19
b0 n20
b00000000000000000000000001011100 n21
b1 n22
b0 n23
b0 n24
b00000000000000000000000000000011 n25
b0 n27
b0 n28
b0 n29
b0 n30
#145
b0 n7
b0 n13
b0 n26
#150
1!
b00000000000000000000000000001111 t
b1 n7
b1 n13
b1 n26
b00000000000000000000000001011011 n0
b00000000000000000000000001011010 n1
b00000000000000000000000001011001 n2
b0 n3
b10 n4
b00000000000000000000000000000000 n5
b0 n6
b0 n8
b00000000000000000000000001011001 n9
b0 n10
b0 n11
b00000000000000000000000000000000 n12
b0 n14
b1 n15
b1 n16
b0 n17
b0 n18
b0 n19
b0 n20
b00000000000000000000000001011011 n21
b1 n22
b0 n23
b0 n24
b00000000000000000000000000000000 n25
b0 n27
b0 n28
b0 n29
b0 n30
#155
b0 n7
b0 n13
b0 n26
#160
1!
b00000000000000000000000000010000 t
b1 n7
b1 n13
b1 n26
b00000000000000000000000001011010 n0
b00000000000000000000000001011001 n1
b00000000000000000000000001011000 n2
b0 n3
b10 n4
b00000000000000000000000001000010 n5
b0 n6
b0 n8
b00000000000000000000000001011000 n9
b0 n10
b0 n11
b00000000000000000000000001000010 n12
b0 n14
b1 n15
b1 n16
b0 n17
b0 n18
b0 n19
b0 n20
b00000000000000000000000001011010 n21
b1 n22
b0 n23
b0 n24
b00000000000000000000000001000010 n25
b0 n27
b0 n28
b0 n29
b0 n30
#165
b0 n7
b0 n13
b0 n26
#170
1!
b00000000000000000000000000010001 t
b1 n7
b1 n13
b1 n26
b00000000000000000000000001011001 n0
b00000000000000000000000001011000 n1
b00000000000000000000000001010111 n2
b0 n3
b10 n4
b00000000000000000000000000000110 n5
b0 n6
b0 n8
b00000000000000000000000001010111 n9
b0 n10
b0 n11
b00000000000000000000000000000110 n12
b0 n14
b1 n15
b1 n16
b0 n17
b0 n18
b0 n19
b0 n20
b00000000000000000000000001011001 n21
b1 n22
b0 n23
b0 n24
b00000000000000000000000000000110 n25
b0 n27
b0 n28
b0 n29
b0 n30
#175
b0 n7
b0 n13
b0 n26
#180
1!
b00000000000000000000000000010010 t
b1 n7
b1 n13
b1 n26
b00000000000000000000000001011000 n0
b00000000000000000000000001010111 n1
b00000000000000000000000001010110 n2
b0 n3
b10 n4
b00000000000000000000000000000010 n5
b0 n6
b0 n8
b00000000000000000000000001010110 n9
b0 n10
b0 n11
b00000000000000000000000000000010 n12
b0 n14
b1 n15
b1 n16
b0 n17
b0 n18
b0 n19
b0 n20
b00000000000000000000000001011000 n21
b1 n22
b0 n23
b0 n24
b00000000000000000000000000000010 n25
b0 n27
b0 n28
b0 n29
b0 n30
#185
b0 n7
b0 n13
b0 n26
#190
1!
b00000000000000000000000000010011 t
b1 n7
b1 n13
b1 n26
b00000000000000000000000001010111 n0
b00000000000000000000000001010110 n1
b00000000000000000000000001010101 n2
b0 n3
b10 n4
b00000000000000000000000000000010 n5
b0 n6
b0 n8
b00000000000000000000000001010101 n9
b0 n10
b0 n11
b00000000000000000000000000000010 n12
b0 n14
b1 n15
b1 n16
b0 n17
b0 n18
b0 n19
b0 n20
b00000000000000000000000001010111 n21
b1 n22
b0 n23
b0 n24
b00000000000000000000000000000010 n25
b0 n27
b0 n28
b0 n29
b0 n30
#195
b0 n7
b0 n13
b0 n26
#200
1!
b00000000000000000000000000010100 t
b1 n7
b1 n13
b1 n26
b00000000000000000000000001010110 n0
b00000000000000000000000001010101 n1
b00000000000000000000000001010100 n2
b0 n3
b10 n4
b00000000000000000000000000000001 n5
b0 n6
b0 n8
b00000000000000000000000001010100 n9
b0 n10
b0 n11
b00000000000000000000000000000001 n12
b0 n14
b1 n15
b1 n16
b0 n17
b0 n18
b0 n19
b0 n20
b00000000000000000000000001010110 n21
b1 n22
b0 n23
b0 n24
b00000000000000000000000000000001 n25
b0 n27
b0 n28
b0 n29
b0 n30
#205
b0 n7
b0 n13
b0 n26
#210
1!
b00000000000000000000000000010101 t
b1 n7
b1 n13
b1 n26
b00000000000000000000000001010101 n0
b00000000000000000000000001010100 n1
b00000000000000000000000001010011 n2
b0 n3
b10 n4
b00000000000000000000000000000001 n5
b0 n6
b0 n8
b00000000000000000000000001010011 n9
b0 n10
b0 n11
b00000000000000000000000000000001 n12
b0 n14
b1 n15
b1 n16
b0 n17
b0 n18
b0 n19
b0 n20
b00000000000000000000000001010101 n21
b1 n22
b0 n23
b0 n24
b00000000000000000000000000000001 n25
b0 n27
b0 n28
b0 n29
b0 n30
#215
b0 n7
b0 n13
b0 n26
#220
1!
b00000000000000000000000000010110 t
b1 n7
b1 n13
b1 n26
b00000000000000000000000001010100 n0
b00000000000000000000000001010011 n1
b00000000000000000000000001010010 n2
b0 n3
b10 n4
b00000000000000000000000000000010 n5
b0 n6
b0 n8
b00000000000000000000000001010010 n9
b0 n10
b0 n11
b00000000000000000000000000000010 n12
b0 n14
b1 n15
b1 n16
b0 n17
b0 n18
b0 n19
b0 n20
b00000000000000000000000001010100 n21
b1 n22
b0 n23
b0 n24
b00000000000000000000000000000010 n25
b0 n27
b0 n28
b0 n29
b0 n30
#225
b0 n7
b0 n13
b0 n26
#230
1!
b00000000000000000000000000010111 t
b1 n7
b1 n13
b1 n26
b00000000000000000000000001010011 n0
b00000000000000000000000001010010 n1
b00000000000000000000000001010001 n2
b0 n3
b10 n4
b00000000000000000000000000000010 n5
b0 n6
b0 n8
b00000000000000000000000001010001 n9
b0 n10
b0 n11
b00000000000000000000000000000010 n12
b0 n14
b1 n15
b1 n16
b0 n17
b0 n18
b0 n19
b0 n20
b00000000000000000000000001010011 n21
b1 n22
b0 n23
b0 n24
b00000000000000000000000000000010 n25
b0 n27
b0 n28
b0 n29
b0 n30
#235
b0 n7
b0 n13
b0 n26
#240
1!
b00000000000000000000000000011000 t
b1 n7
b1 n13
b1 n26
b00000000000000000000000001010010 n0
b00000000000000000000000001010001 n1
b00000000000000000000000001010000 n2
b0 n3
b10 n4
b00000000000000000000000000000001 n5
b0 n6
b0 n8
b00000000000000000000000001010000 n9
b0 n10
b0 n11
b00000000000000000000000000000001 n12
b0 n14
b1 n15
b1 n16
b0 n17
b0 n18
b0 n19
b0 n20
b00000000000000000000000001010010 n21
b1 n22
b0 n23
b0 n24
b00000000000000000000000000000001 n25
b0 n27
b0 n28
b0 n29
b0 n30
#245
b0 n7
b0 n13
b0 n26
#250
1!
b00000000000000000000000000011001 t
b1 n7
b1 n13
b1 n26
b00000000000000000000000001010001 n0
b00000000000000000000000001010000 n1
b00000000000000000000000001001111 n2
b0 n3
b10 n4
b00000000000000000000000000000100 n5
b0 n6
b0 n8
b00000000000000000000000001001111 n9
b0 n10
b0 n11
b00000000000000000000000000000100 n12
b0 n14
b1 n15
b1 n16
b0 n17
b0 n18
b0 n19
b0 n20
b00000000000000000000000001010001 n21
b1 n22
b0 n23
b0 n24
b00000000000000000000000000000100 n25
b0 n27
b0 n28
b0 n29
b0 n30
#255
b0 n7
b0 n13
b0 n26
#260
1!
b00000000000000000000000000011010 t
b1 n7
b1 n13
b1 n26
b00000000000000000000000001010000 n0
b00000000000000000000000001001111 n1
b00000000000000000000000001001110 n2
b0 n3
b10 n4
b00000000000000000000000000010110 n5
b0 n6
b0 n8
b00000000000000000000000001001110 n9
b0 n10
b0 n11
b00000000000000000000000000010110 n12
b0 n14
b1 n15
b1 n16
b0 n17
b0 n18
b0 n19
b0 n20
b00000000000000000000000001010000 n21
b1 n22
b0 n23
b0 n24
b00000000000000000000000000010110 n25
b0 n27
b0 n28
b0 n29
b0 n30
#265
b0 n7
b0 n13
b0 n26
#270
1!
b00000000000000000000000000011011 t
b1 n7
b1 n13
b1 n26
b00000000000000000000000001001111 n0
b00000000000000000000000001001110 n1
b00000000000000000000000001001101 n2
b0 n3
b10 n4
b00000000000000000000000000000001 n5
b0 n6
b0 n8
b00000000000000000000000001001101 n9
b0 n10
b0 n11
b00000000000000000000000000000001 n12
b0 n14
b1 n15
b1 n16
b0 n17
b0 n18
b0 n19
b0 n20
b00000000000000000000000001001111 n21
b1 n22
b0 n23
b0 n24
b00000000000000000000000000000001 n25
b0 n27
b0 n28
b0 n29
b0 n30
#275
b0 n7
b0 n13
b0 n26
#280
1!
b00000000000000000000000000011100 t
b1 n7
b1 n13
b1 n26
b00000000000000000000000001001110 n0
b00000000000000000000000001001101 n1
b00000000000000000000000001001100 n2
b0 n3
b10 n4
b00000000000000000000000000000010 n5
b0 n6
b0 n8
b00000000000000000000000001001100 n9
b0 n10
b0 n11
b00000000000000000000000000000010 n12
b0 n14
b1 n15
b1 n16
b0 n17
b0 n18
b0 n19
b0 n20
b00000000000000000000000001001110 n21
b1 n22
b0 n23
b0 n24
b00000000000000000000000000000010 n25
b0 n27
b0 n28
b0 n29
b0 n30
#285
b0 n7
b0 n13
b0 n26
#290
1!
b00000000000000000000000000011101 t
b1 n7
b1 n13
b1 n26
b00000000000000000000000001001101 n0
b00000000000000000000000001001100 n1
b00000000000000000000000001001011 n2
b0 n3
b10 n4
b00000000000000000000000000000010 n5
b0 n6
b0 n8
b00000000000000000000000001001011 n9
b0 n10
b0 n11
b00000000000000000000000000000010 n12
b0 n14
b1 n15
b1 n16
b0 n17
b0 n18
b0 n19
b0 n20
b00000000000000000000000001001101 n21
b1 n22
b0 n23
b0 n24
b00000000000000000000000000000010 n25
b0 n27
b0 n28
b0 n29
b0 n30
#295
b0 n7
b0 n13
b0 n26
#300
1!
b00000000000000000000000000011110 t
b1 n7
b1 n13
b1 n26
b00000000000000000000000001001100 n0
b00000000000000000000000001001011 n1
b00000000000000000000000001001010 n2
b0 n3
b10 n4
b00000000000000000000000000000010 n5
b0 n6
b0 n8
b00000000000000000000000001001010 n9
b0 n10
b0 n11
b00000000000000000000000000000010 n12
b0 n14
b1 n15
b1 n16
b0 n17
b0 n18
b0 n19
b0 n20
b00000000000000000000000001001100 n21
b1 n22
b0 n23
b0 n24
b00000000000000000000000000000010 n25
b0 n27
b0 n28
b0 n29
b0 n30
#305
b0 n7
b0 n13
b0 n26
#310
1!
b00000000000000000000000000011111 t
b1 n7
b1 n13
b1 n26
b00000000000000000000000001001011 n0
b00000000000000000000000001001010 n1
b00000000000000000000000001001001 n2
b0 n3
b10 n4
b00000000000000000000000000000100 n5
b0 n6
b0 n8
b00000000000000000000000001001001 n9
b0 n10
b0 n11
b00000000000000000000000000000100 n12
b0 n14
b1 n15
b1 n16
b0 n17
b0 n18
b0 n19
b0 n20
b00000000000000000000000001001011 n21
b1 n22
b0 n23
b0 n24
b00000000000000000000000000000100 n25
b0 n27
b0 n28
b0 n29
b0 n30
#315
b0 n7
b0 n13
b0 n26
#320
1!
b00000000000000000000000000100000 t
b1 n7
b1 n13
b1 n26
b00000000000000000000000001001010 n0
b00000000000000000000000001001001 n1
b00000000000000000000000001001000 n2
b0 n3
b10 n4
b00000000000000000000000000000101 n5
b0 n6
b0 n8
b00000000000000000000000001001000 n9
b0 n10
b0 n11
b00000000000000000000000000000101 n12
b0 n14
b1 n15
b1 n16
b0 n17
b0 n18
b0 n19
b0 n20
b00000000000000000000000001001010 n21
b1 n22
b0 n23
b0 n24
b00000000000000000000000000000101 n25
b0 n27
b0 n28
b0 n29
b0 n30
#325
b0 n7
b0 n13
b0 n26
#330
1!
b00000000000000000000000000100001 t
b1 n7
b1 n13
b1 n26
b00000000000000000000000001001001 n0
b00000000000000000000000001001000 n1
b00000000000000000000000001000111 n2
b0 n3
b10 n4
b00000000000000000000000000100001 n5
b0 n6
b0 n8
b00000000000000000000000001000111 n9
b0 n10
b0 n11
b00000000000000000000000000100001 n12
b0 n14
b1 n15
b1 n16
b0 n17
b0 n18
b0 n19
b0 n20
b00000000000000000000000001001001 n21
b1 n22
b0 n23
b0 n24
b00000000000000000000000000100001 n25
b0 n27
b0 n28
b0 n29
b0 n30
#335
b0 n7
b0 n13
b0 n26
#340
1!
b00000000000000000000000000100010 t
b1 n7
b1 n13
b1 n26
b00000000000000000000000001001000 n0
b00000000000000000000000001000111 n1
b00000000000000000000000001000110 n2
b0 n3
b10 n4
b00000000000000000000000000000000 n5
b0 n6
b0 n8
b00000000000000000000000001000110 n9
b0 n10
b0 n11
b00000000000000000000000000000000 n12
b0 n14
b1 n15
b1 n16
b0 n17
b0 n18
b0 n19
b0 n20
b00000000000000000000000001001000 n21
b1 n22
b0 n23
b0 n24
b00000000000000000000000000000000 n25
b0 n27
b0 n28
b0 n29
b0 n30
#345
b0 n7
b0 n13
b0 n26
#350
1!
b00000000000000000000000000100011 t
b1 n7
b1 n13
b1 n26
b00000000000000000000000001000111 n0
b00000000000000000000000001000110 n1
b00000000000000000000000001000101 n2
b0 n3
b10 n4
b00000000000000000000000000000000 n5
b0 n6
b0 n8
b00000000000000000000000001000101 n9
b0 n10
b0 n11
b00000000000000000000000000000000 n12
b0 n14
b1 n15
b1 n16
b0 n17
b0 n18
b0 n19
b0 n20
b00000000000000000000000001000111 n21
b1 n22
b0 n23
b0 n24
b00000000000000000000000000000000 n25
b0 n27
b0 n28
b0 n29
b0 n30
#355
b0 n7
b0 n13
b0 n26
#360
1!
b00000000000000000000000000100100 t
b1 n7
b1 n13
b1 n26
b00000000000000000000000001000110 n0
b00000000000000000000000001000101 n1
b00000000000000000000000001000100 n2
b0 n3
b10 n4
b10000000000000000000000000000000 n5
b0 n6
b0 n8
b00000000000000000000000001000100 n9
b0 n10
b0 n11
b10000000000000000000000000000000 n12
b0 n14
b1 n15
b1 n16
b0 n17
b0 n18
b0 n19
b0 n20
b00000000000000000000000001000110 n21
b1 n22
b0 n23
b0 n24
b10000000000000000000000000000000 n25
b0 n27
b0 n28
b0 n29
b0 n30
#365
b0 n7
b0 n13
b0 n26
#370
1!
b00000000000000000000000000100101 t
b1 n7
b1 n13
b1 n26
b00000000000000000000000001000101 n0
b00000000000000000000000001000100 n1
b00000000000000000000000001000011 n2
b0 n3
b10 n4
b00000000000000000000000000000010 n5
b0 n6
b0 n8
b00000000000000000000000001000011 n9
b0 n10
b0 n11
b00000000000000000000000000000010 n12
b0 n14
b1 n15
b1 n16
b0 n17
b0 n18
b0 n19
b0 n20
b00000000000000000000000001000101 n21
b1 n22
b0 n23
b0 n24
b00000000000000000000000000000010 n25
b0 n27
b0 n28
b0 n29
b0 n30
#375
b0 n7
b0 n13
b0 n26
#380
1!
b00000000000000000000000000100110 t
b1 n7
b1 n13
b1 n26
b00000000000000000000000001000100 n0
b00000000000000000000000001000011 n1
b00000000000000000000000001000010 n2
b0 n3
b10 n4
b10000000000000000000000000000000 n5
b0 n6
b0 n8
b00000000000000000000000001000010 n9
b0 n10
b0 n11
b10000000000000000000000000000000 n12
b0 n14
b1 n15
b1 n16
b0 n17
b0 n18
b0 n19
b0 n20
b00000000000000000000000001000100 n21
b1 n22
b0 n23
b0 n24
b10000000000000000000000000000000 n25
b0 n27
b0 n28
b0 n29
b0 n30
#385
b0 n7
b0 n13
b0 n26
#390
1!
b00000000000000000000000000100111 t
b1 n7
b1 n13
b1 n26
b00000000000000000000000001000011 n0
b00000000000000000000000001000010 n1
b00000000000000000000000001000001 n2
b0 n3
b10 n4
b00000000000000000000000000001111 n5
b0 n6
b0 n8
b00000000000000000000000001000001 n9
b0 n10
b0 n11
b00000000000000000000000000001111 n12
b0 n14
b1 n15
b1 n16
b0 n17
b0 n18
b0 n19
b0 n20
b00000000000000000000000001000011 n21
b1 n22
b0 n23
b0 n24
b00000000000000000000000000001111 n25
b0 n27
b0 n28
b0 n29
b0 n30
#395
b0 n7
b0 n13
b0 n26
#400
1!
b00000000000000000000000000101000 t
b1 n7
b1 n13
b1 n26
b00000000000000000000000001000010 n0
b00000000000000000000000001000001 n1
b00000000000000000000000001000000 n2
b0 n3
b10 n4
b00000000000000000000000000000001 n5
b0 n6
b0 n8
b00000000000000000000000001000000 n9
b0 n10
b0 n11
b00000000000000000000000000000001 n12
b0 n14
b1 n15
b1 n16
b0 n17
b0 n18
b0 n19
b0 n20
b00000000000000000000000001000010 n21
b1 n22
b0 n23
b0 n24
b00000000000000000000000000000001 n25
b0 n27
b0 n28
b0 n29
b0 n30
#405
b0 n7
b0 n13
b0 n26
#410
1!
b00000000000000000000000000101001 t
b1 n7
b1 n13
b1 n26
b00000000000000000000000001000001 n0
b00000000000000000000000001000000 n1
b00000000000000000000000000111111 n2
b0 n3
b10 n4
b00000000000000000000000000000000 n5
b0 n6
b0 n8
b00000000000000000000000000111111 n9
b0 n10
b0 n11
b00000000000000000000000000000000 n12
b0 n14
b1 n15
b1 n16
b0 n17
b0 n18
b0 n19
b0 n20
b00000000000000000000000001000001 n21
b1 n22
b0 n23
b0 n24
b00000000000000000000000000000000 n25
b0 n27
b0 n28
b0 n29
b0 n30
#415
b0 n7
b0 n13
b0 n26
#420
1!
b00000000000000000000000000101010 t
b1 n7
b1 n13
b1 n26
b00000000000000000000000001000000 n0
b00000000000000000000000000111111 n1
b00000000000000000000000000111110 n2
b0 n3
b10 n4
b00000000000000000000000000011110 n5
b0 n6
b0 n8
b00000000000000000000000000111110 n9
b0 n10
b0 n11
b00000000000000000000000000011110 n12
b0 n14
b1 n15
b1 n16
b0 n17
b0 n18
b0 n19
b0 n20
b00000000000000000000000001000000 n21
b1 n22
b0 n23
b0 n24
b00000000000000000000000000011110 n25
b0 n27
b0 n28
b0 n29
b0 n30
#425
b0 n7
b0 n13
b0 n26
#430
1!
b00000000000000000000000000101011 t
b1 n7
b1 n13
b1 n26
b00000000000000000000000000111111 n0
b00000000000000000000000000111110 n1
b00000000000000000000000000111101 n2
b0 n3
b10 n4
b00000000000000000000000000000101 n5
b0 n6
b0 n8
b00000000000000000000000000111101 n9
b0 n10
b0 n11
b00000000000000000000000000000101 n12
b0 n14
b1 n15
b1 n16
b0 n17
b0 n18
b0 n19
b0 n20
b00000000000000000000000000111111 n21
b1 n22
b0 n23
b0 n24
b00000000000000000000000000000101 n25
b0 n27
b0 n28
b0 n29
b0 n30
#435
b0 n7
b0 n13
b0 n26
#440
1!
b00000000000000000000000000101100 t
b1 n7
b1 n13
b1 n26
b00000000000000000000000000111110 n0
b00000000000000000000000000111101 n1
b00000000000000000000000000111100 n2
b0 n3
b10 n4
b00000000000000000000000000000011 n5
b0 n6
b0 n8
b00000000000000000000000000111100 n9
b0 n10
b0 n11
b00000000000000000000000000000011 n12
b0 n14
b1 n15
b1 n16
b0 n17
b0 n18
b0 n19
b0 n20
b00000000000000000000000000111110 n21
b1 n22
b0 n23
b0 n24
b00000000000000000000000000000011 n25
b0 n27
b0 n28
b0 n29
b0 n30
#445
b0 n7
b0 n13
b0 n26
#450
1!
b00000000000000000000000000101101 t
b1 n7
b1 n13
b1 n26
b00000000000000000000000000111101 n0
b00000000000000000000000000111100 n1
b00000000000000000000000000111011 n2
b0 n3
b10 n4
b00000000000000000000000000000011 n5
b0 n6
b0 n8
b00000000000000000000000000111011 n9
b0 n10
b0 n11
b00000000000000000000000000000011 n12
b0 n14
b1 n15
b1 n16
b0 n17
b0 n18
b0 n19
b0 n20
b00000000000000000000000000111101 n21
b1 n22
b0 n23
b0 n24
b00000000000000000000000000000011 n25
b0 n27
b0 n28
b0 n29
b0 n30
#455
b0 n7
b0 n13
b0 n26
