tests2_feb2022/test7_formal_verification_timer_restructured_testDesiredInterface_withExpectedBehaviour_period=0.0001.vcd
$comment Generated by Amaranth $end
$date 2022-03-02 11:56:19.200053 $end
$timescale 1 ps $end
$scope module bench $end
$scope module top $end
$var wire 1 ! clk $end
$var wire 1 " rst $end
$var wire 1 # ui__tb_fanin_flags__in_start $end
$var wire 1 $ _ui__tb_fanin_flags__in_start $end
$var wire 1 % ui__tb_fanin_flags__in_done $end
$var wire 1 & _ui__tb_fanin_flags__in_done $end
$var wire 1 ' _ui__tb_fanout_flags__trigger $end
$var wire 1 ( ui__tb_fanout_flags__trigger $end
$var wire 1 ) ui__done $end
$var wire 1 * _ui__done $end
$var wire 1 + ui__inactive $end
$var wire 1 , _ui__inactive $end
$var wire 12 - _ui__load $end
$var wire 12 . ui__load $end
$var wire 1 / ui__done$1 $end
$var wire 1 0 ui__inactive$1 $end
$var wire 12 1 ui__load$1 $end
$var string 1 2 testbench_fsm_state $end
$var string 1 3 delay_fsm_state $end
$scope module delayer $end
$var wire 1 ! clk $end
$var wire 1 " rst $end
$var wire 1 / ui__done $end
$var wire 1 0 ui__inactive $end
$var wire 12 1 ui__load $end
$var wire 1 4 _ui__done $end
$var wire 1 5 _ui__inactive $end
$var wire 12 6 _ui__load $end
$var wire 12 7 countdown $end
$upscope $end
$upscope $end
$upscope $end
$enddefinitions $end
#0
$dumpvars
0!
0"
0#
0$
0%
0&
0'
0(
0)
0*
0+
0,
b0 -
b0 .
0/
00
b0 1
sINITIAL/2 2
sINIT/0 3
04
05
b0 6
b0 7
$end
#20833
1!
sSTART/0 2
15
#41666
0!
#62499
10
1!
b100101011000 -
1$
sLOADED/1 3
#83332
0!
#104165
b100101011000 1
1!
b0 -
1#
1,
sDONE/2 3
#124998
0!
#145831
1+
1!
b100101011000 6
b0 1
#166664
0!
#187497
1!
b0 6
b100101011000 7
#208330
0!
#229163
1!
b100101010111 7
05
#249996
0!
#270829
00
1!
b100101010110 7
#291662
0!
#312495
1!
0,
b100101010101 7
#333328
0!
#354161
0+
1!
b100101010100 7
#374994
0!
#395827
1!
b100101010011 7
#416660
0!
#437493
1!
b100101010010 7
#458326
0!
#479159
1!
b100101010001 7
#499992
0!
#520825
1!
b100101010000 7
#541658
0!
#562491
1!
b100101001111 7
#583324
0!
#604157
1!
b100101001110 7
#624990
0!
#645823
1!
b100101001101 7
#666656
0!
#687489
1!
b100101001100 7
#708322
0!
#729155
1!
b100101001011 7
#749988
0!
#770821
1!
b100101001010 7
#791654
0!
#812487
1!
b100101001001 7
#833320
0!
#854153
1!
b100101001000 7
#874986
0!
#895819
1!
b100101000111 7
#916652
0!
#937485
1!
b100101000110 7
#958318
0!
#979151
1!
b100101000101 7
#999984
0!
#1020817
1!
b100101000100 7
#1041650
0!
#1062483
1!
b100101000011 7
#1083316
0!
#1104149
1!
b100101000010 7
#1124982
0!
#1145815
1!
b100101000001 7
#1166648
0!
#1187481
1!
b100101000000 7
#1208314
0!
#1229147
1!
b100100111111 7
#1249980
0!
#1270813
1!
b100100111110 7
#1291646
0!
#1312479
1!
b100100111101 7
#1333312
0!
#1354145
1!
b100100111100 7
#1374978
0!
#1395811
1!
b100100111011 7
#1416644
0!
#1437477
1!
b100100111010 7
#1458310
0!
#1479143
1!
b100100111001 7
#1499976
0!
#1520809
1!
b100100111000 7
#1541642
0!
#1562475
1!
b100100110111 7
#1583308
0!
#1604141
1!
b100100110110 7
#1624974
0!
#1645807
1!
b100100110101 7
#1666640
0!
#1687473
1!
b100100110100 7
#1708306
0!
#1729139
1!
b100100110011 7
#1749972
0!
#1770805
1!
b100100110010 7
#1791638
0!
#1812471
1!
b100100110001 7
#1833304
0!
#1854137
1!
b100100110000 7
#1874970
0!
#1895803
1!
b100100101111 7
#1916636
0!
#1937469
1!
b100100101110 7
#1958302
0!
#1979135
1!
b100100101101 7
#1999968
0!
#2020801
1!
b100100101100 7
#2041634
0!
#2062467
1!
b100100101011 7
#2083300
0!
#2104133
1!
b100100101010 7
#2124966
0!
#2145799
1!
b100100101001 7
#2166632
0!
#2187465
1!
b100100101000 7
#2208298
0!
#2229131
1!
b100100100111 7
#2249964
0!
#2270797
1!
b100100100110 7
#2291630
0!
#2312463
1!
b100100100101 7
#2333296
0!
#2354129
1!
b100100100100 7
#2374962
0!
#2395795
1!
b100100100011 7
#2416628
0!
#2437461
1!
b100100100010 7
#2458294
0!
#2479127
1!
b100100100001 7
#2499960
0!
#2520793
1!
b100100100000 7
#2541626
0!
#2562459
1!
b100100011111 7
#2583292
0!
#2604125
1!
b100100011110 7
#2624958
0!
#2645791
1!
b100100011101 7
#2666624
0!
#2687457
1!
b100100011100 7
#2708290
0!
#2729123
1!
b100100011011 7
#2749956
0!
#2770789
1!
b100100011010 7
#2791622
0!
#2812455
1!
b100100011001 7
#2833288
0!
#2854121
1!
b100100011000 7
#2874954
0!
#2895787
1!
b100100010111 7
#2916620
0!
#2937453
1!
b100100010110 7
#2958286
0!
#2979119
1!
b100100010101 7
#2999952
0!
#3020785
1!
b100100010100 7
#3041618
0!
#3062451
1!
b100100010011 7
#3083284
0!
#3104117
1!
b100100010010 7
#3124950
0!
#3145783
1!
b100100010001 7
#3166616
0!
#3187449
1!
b100100010000 7
#3208282
0!
#3229115
1!
b100100001111 7
#3249948
0!
#3270781
1!
b100100001110 7
#3291614
0!
#3312447
1!
b100100001101 7
#3333280
0!
#3354113
1!
b100100001100 7
#3374946
0!
#3395779
1!
b100100001011 7
#3416612
0!
#3437445
1!
b100100001010 7
#3458278
0!
#3479111
1!
b100100001001 7
#3499944
0!
#3520777
1!
b100100001000 7
#3541610
0!
#3562443
1!
b100100000111 7
#3583276
0!
#3604109
1!
b100100000110 7
#3624942
0!
#3645775
1!
b100100000101 7
#3666608
0!
#3687441
1!
b100100000100 7
#3708274
0!
#3729107
1!
b100100000011 7
#3749940
0!
#3770773
1!
b100100000010 7
#3791606
0!
#3812439
1!
b100100000001 7
#3833272
0!
#3854105
1!
b100100000000 7
#3874938
0!
#3895771
1!
b100011111111 7
#3916604
0!
#3937437
1!
b100011111110 7
#3958270
0!
#3979103
1!
b100011111101 7
#3999936
0!
#4020769
1!
b100011111100 7
#4041602
0!
#4062435
1!
b100011111011 7
#4083268
0!
#4104101
1!
b100011111010 7
#4124934
0!
#4145767
1!
b100011111001 7
#4166600
0!
#4187433
1!
b100011111000 7
#4208266
0!
#4229099
1!
b100011110111 7
#4249932
0!
#4270765
1!
b100011110110 7
#4291598
0!
#4312431
1!
b100011110101 7
#4333264
0!
#4354097
1!
b100011110100 7
#4374930
0!
#4395763
1!
b100011110011 7
#4416596
0!
#4437429
1!
b100011110010 7
#4458262
0!
#4479095
1!
b100011110001 7
#4499928
0!
#4520761
1!
b100011110000 7
#4541594
0!
#4562427
1!
b100011101111 7
#4583260
0!
#4604093
1!
b100011101110 7
#4624926
0!
#4645759
1!
b100011101101 7
#4666592
0!
#4687425
1!
b100011101100 7
#4708258
0!
#4729091
1!
b100011101011 7
#4749924
0!
#4770757
1!
b100011101010 7
#4791590
0!
#4812423
1!
b100011101001 7
#4833256
0!
#4854089
1!
b100011101000 7
#4874922
0!
#4895755
1!
b100011100111 7
#4916588
0!
#4937421
1!
b100011100110 7
#4958254
0!
#4979087
1!
b100011100101 7
#4999920
0!
#5020753
1!
b100011100100 7
#5041586
0!
#5062419
1!
b100011100011 7
#5083252
0!
#5104085
1!
b100011100010 7
#5124918
0!
#5145751
1!
b100011100001 7
#5166584
0!
#5187417
1!
b100011100000 7
#5208250
0!
#5229083
1!
b100011011111 7
#5249916
0!
#5270749
1!
b100011011110 7
#5291582
0!
#5312415
1!
b100011011101 7
#5333248
0!
#5354081
1!
b100011011100 7
#5374914
0!
#5395747
1!
b100011011011 7
#5416580
0!
#5437413
1!
b100011011010 7
#5458246
0!
#5479079
1!
b100011011001 7
#5499912
0!
#5520745
1!
b100011011000 7
#5541578
0!
#5562411
1!
b100011010111 7
#5583244
0!
#5604077
1!
b100011010110 7
#5624910
0!
#5645743
1!
b100011010101 7
#5666576
0!
#5687409
1!
b100011010100 7
#5708242
0!
#5729075
1!
b100011010011 7
#5749908
0!
#5770741
1!
b100011010010 7
#5791574
0!
#5812407
1!
b100011010001 7
#5833240
0!
#5854073
1!
b100011010000 7
#5874906
0!
#5895739
1!
b100011001111 7
#5916572
0!
#5937405
1!
b100011001110 7
#5958238
0!
#5979071
1!
b100011001101 7
#5999904
0!
#6020737
1!
b100011001100 7
#6041570
0!
#6062403
1!
b100011001011 7
#6083236
0!
#6104069
1!
b100011001010 7
#6124902
0!
#6145735
1!
b100011001001 7
#6166568
0!
#6187401
1!
b100011001000 7
#6208234
0!
#6229067
1!
b100011000111 7
#6249900
0!
#6270733
1!
b100011000110 7
#6291566
0!
#6312399
1!
b100011000101 7
#6333232
0!
#6354065
1!
b100011000100 7
#6374898
0!
#6395731
1!
b100011000011 7
#6416564
0!
#6437397
1!
b100011000010 7
#6458230
0!
#6479063
1!
b100011000001 7
#6499896
0!
#6520729
1!
b100011000000 7
#6541562
0!
#6562395
1!
b100010111111 7
#6583228
0!
#6604061
1!
b100010111110 7
#6624894
0!
#6645727
1!
b100010111101 7
#6666560
0!
#6687393
1!
b100010111100 7
#6708226
0!
#6729059
1!
b100010111011 7
#6749892
0!
#6770725
1!
b100010111010 7
#6791558
0!
#6812391
1!
b100010111001 7
#6833224
0!
#6854057
1!
b100010111000 7
#6874890
0!
#6895723
1!
b100010110111 7
#6916556
0!
#6937389
1!
b100010110110 7
#6958222
0!
#6979055
1!
b100010110101 7
#6999888
0!
#7020721
1!
b100010110100 7
#7041554
0!
#7062387
1!
b100010110011 7
#7083220
0!
#7104053
1!
b100010110010 7
#7124886
0!
#7145719
1!
b100010110001 7
#7166552
0!
#7187385
1!
b100010110000 7
#7208218
0!
#7229051
1!
b100010101111 7
#7249884
0!
#7270717
1!
b100010101110 7
#7291550
0!
#7312383
1!
b100010101101 7
#7333216
0!
#7354049
1!
b100010101100 7
#7374882
0!
#7395715
1!
b100010101011 7
#7416548
0!
#7437381
1!
b100010101010 7
#7458214
0!
#7479047
1!
b100010101001 7
#7499880
0!
#7520713
1!
b100010101000 7
#7541546
0!
#7562379
1!
b100010100111 7
#7583212
0!
#7604045
1!
b100010100110 7
#7624878
0!
#7645711
1!
b100010100101 7
#7666544
0!
#7687377
1!
b100010100100 7
#7708210
0!
#7729043
1!
b100010100011 7
#7749876
0!
#7770709
1!
b100010100010 7
#7791542
0!
#7812375
1!
b100010100001 7
#7833208
0!
#7854041
1!
b100010100000 7
#7874874
0!
#7895707
1!
b100010011111 7
#7916540
0!
#7937373
1!
b100010011110 7
#7958206
0!
#7979039
1!
b100010011101 7
#7999872
0!
#8020705
1!
b100010011100 7
#8041538
0!
#8062371
1!
b100010011011 7
#8083204
0!
#8104037
1!
b100010011010 7
#8124870
0!
#8145703
1!
b100010011001 7
#8166536
0!
#8187369
1!
b100010011000 7
#8208202
0!
#8229035
1!
b100010010111 7
#8249868
0!
#8270701
1!
b100010010110 7
#8291534
0!
#8312367
1!
b100010010101 7
#8333200
0!
#8354033
1!
b100010010100 7
#8374866
0!
#8395699
1!
b100010010011 7
#8416532
0!
#8437365
1!
b100010010010 7
#8458198
0!
#8479031
1!
b100010010001 7
#8499864
0!
#8520697
1!
b100010010000 7
#8541530
0!
#8562363
1!
b100010001111 7
#8583196
0!
#8604029
1!
b100010001110 7
#8624862
0!
#8645695
1!
b100010001101 7
#8666528
0!
#8687361
1!
b100010001100 7
#8708194
0!
#8729027
1!
b100010001011 7
#8749860
0!
#8770693
1!
b100010001010 7
#8791526
0!
#8812359
1!
b100010001001 7
#8833192
0!
#8854025
1!
b100010001000 7
#8874858
0!
#8895691
1!
b100010000111 7
#8916524
0!
#8937357
1!
b100010000110 7
#8958190
0!
#8979023
1!
b100010000101 7
#8999856
0!
#9020689
1!
b100010000100 7
#9041522
0!
#9062355
1!
b100010000011 7
#9083188
0!
#9104021
1!
b100010000010 7
#9124854
0!
#9145687
1!
b100010000001 7
#9166520
0!
#9187353
1!
b100010000000 7
#9208186
0!
#9229019
1!
b100001111111 7
#9249852
0!
#9270685
1!
b100001111110 7
#9291518
0!
#9312351
1!
b100001111101 7
#9333184
0!
#9354017
1!
b100001111100 7
#9374850
0!
#9395683
1!
b100001111011 7
#9416516
0!
#9437349
1!
b100001111010 7
#9458182
0!
#9479015
1!
b100001111001 7
#9499848
0!
#9520681
1!
b100001111000 7
#9541514
0!
#9562347
1!
b100001110111 7
#9583180
0!
#9604013
1!
b100001110110 7
#9624846
0!
#9645679
1!
b100001110101 7
#9666512
0!
#9687345
1!
b100001110100 7
#9708178
0!
#9729011
1!
b100001110011 7
#9749844
0!
#9770677
1!
b100001110010 7
#9791510
0!
#9812343
1!
b100001110001 7
#9833176
0!
#9854009
1!
b100001110000 7
#9874842
0!
#9895675
1!
b100001101111 7
#9916508
0!
#9937341
1!
b100001101110 7
#9958174
0!
#9979007
1!
b100001101101 7
#9999840
0!
#10020673
1!
b100001101100 7
#10041506
0!
#10062339
1!
b100001101011 7
#10083172
0!
#10104005
1!
b100001101010 7
#10124838
0!
#10145671
1!
b100001101001 7
#10166504
0!
#10187337
1!
b100001101000 7
#10208170
0!
#10229003
1!
b100001100111 7
#10249836
0!
#10270669
1!
b100001100110 7
#10291502
0!
#10312335
1!
b100001100101 7
#10333168
0!
#10354001
1!
b100001100100 7
#10374834
0!
#10395667
1!
b100001100011 7
#10416500
0!
#10437333
1!
b100001100010 7
#10458166
0!
#10478999
1!
b100001100001 7
#10499832
0!
#10520665
1!
b100001100000 7
#10541498
0!
#10562331
1!
b100001011111 7
#10583164
0!
#10603997
1!
b100001011110 7
#10624830
0!
#10645663
1!
b100001011101 7
#10666496
0!
#10687329
1!
b100001011100 7
#10708162
0!
#10728995
1!
b100001011011 7
#10749828
0!
#10770661
1!
b100001011010 7
#10791494
0!
#10812327
1!
b100001011001 7
#10833160
0!
#10853993
1!
b100001011000 7
#10874826
0!
#10895659
1!
b100001010111 7
#10916492
0!
#10937325
1!
b100001010110 7
#10958158
0!
#10978991
1!
b100001010101 7
#10999824
0!
#11020657
1!
b100001010100 7
#11041490
0!
#11062323
1!
b100001010011 7
#11083156
0!
#11103989
1!
b100001010010 7
#11124822
0!
#11145655
1!
b100001010001 7
#11166488
0!
#11187321
1!
b100001010000 7
#11208154
0!
#11228987
1!
b100001001111 7
#11249820
0!
#11270653
1!
b100001001110 7
#11291486
0!
#11312319
1!
b100001001101 7
#11333152
0!
#11353985
1!
b100001001100 7
#11374818
0!
#11395651
1!
b100001001011 7
#11416484
0!
#11437317
1!
b100001001010 7
#11458150
0!
#11478983
1!
b100001001001 7
#11499816
0!
#11520649
1!
b100001001000 7
#11541482
0!
#11562315
1!
b100001000111 7
#11583148
0!
#11603981
1!
b100001000110 7
#11624814
0!
#11645647
1!
b100001000101 7
#11666480
0!
#11687313
1!
b100001000100 7
#11708146
0!
#11728979
1!
b100001000011 7
#11749812
0!
#11770645
1!
b100001000010 7
#11791478
0!
#11812311
1!
b100001000001 7
#11833144
0!
#11853977
1!
b100001000000 7
#11874810
0!
#11895643
1!
b100000111111 7
#11916476
0!
#11937309
1!
b100000111110 7
#11958142
0!
#11978975
1!
b100000111101 7
#11999808
0!
#12020641
1!
b100000111100 7
#12041474
0!
#12062307
1!
b100000111011 7
#12083140
0!
#12103973
1!
b100000111010 7
#12124806
0!
#12145639
1!
b100000111001 7
#12166472
0!
#12187305
1!
b100000111000 7
#12208138
0!
#12228971
1!
b100000110111 7
#12249804
0!
#12270637
1!
b100000110110 7
#12291470
0!
#12312303
1!
b100000110101 7
#12333136
0!
#12353969
1!
b100000110100 7
#12374802
0!
#12395635
1!
b100000110011 7
#12416468
0!
#12437301
1!
b100000110010 7
#12458134
0!
#12478967
1!
b100000110001 7
#12499800
0!
#12520633
1!
b100000110000 7
#12541466
0!
#12562299
1!
b100000101111 7
#12583132
0!
#12603965
1!
b100000101110 7
#12624798
0!
#12645631
1!
b100000101101 7
#12666464
0!
#12687297
1!
b100000101100 7
#12708130
0!
#12728963
1!
b100000101011 7
#12749796
0!
#12770629
1!
b100000101010 7
#12791462
0!
#12812295
1!
b100000101001 7
#12833128
0!
#12853961
1!
b100000101000 7
#12874794
0!
#12895627
1!
b100000100111 7
#12916460
0!
#12937293
1!
b100000100110 7
#12958126
0!
#12978959
1!
b100000100101 7
#12999792
0!
#13020625
1!
b100000100100 7
#13041458
0!
#13062291
1!
b100000100011 7
#13083124
0!
#13103957
1!
b100000100010 7
#13124790
0!
#13145623
1!
b100000100001 7
#13166456
0!
#13187289
1!
b100000100000 7
#13208122
0!
#13228955
1!
b100000011111 7
#13249788
0!
#13270621
1!
b100000011110 7
#13291454
0!
#13312287
1!
b100000011101 7
#13333120
0!
#13353953
1!
b100000011100 7
#13374786
0!
#13395619
1!
b100000011011 7
#13416452
0!
#13437285
1!
b100000011010 7
#13458118
0!
#13478951
1!
b100000011001 7
#13499784
0!
#13520617
1!
b100000011000 7
#13541450
0!
#13562283
1!
b100000010111 7
#13583116
0!
#13603949
1!
b100000010110 7
#13624782
0!
#13645615
1!
b100000010101 7
#13666448
0!
#13687281
1!
b100000010100 7
#13708114
0!
#13728947
1!
b100000010011 7
#13749780
0!
#13770613
1!
b100000010010 7
#13791446
0!
#13812279
1!
b100000010001 7
#13833112
0!
#13853945
1!
b100000010000 7
#13874778
0!
#13895611
1!
b100000001111 7
#13916444
0!
#13937277
1!
b100000001110 7
#13958110
0!
#13978943
1!
b100000001101 7
#13999776
0!
#14020609
1!
b100000001100 7
#14041442
0!
#14062275
1!
b100000001011 7
#14083108
0!
#14103941
1!
b100000001010 7
#14124774
0!
#14145607
1!
b100000001001 7
#14166440
0!
#14187273
1!
b100000001000 7
#14208106
0!
#14228939
1!
b100000000111 7
#14249772
0!
#14270605
1!
b100000000110 7
#14291438
0!
#14312271
1!
b100000000101 7
#14333104
0!
#14353937
1!
b100000000100 7
#14374770
0!
#14395603
1!
b100000000011 7
#14416436
0!
#14437269
1!
b100000000010 7
#14458102
0!
#14478935
1!
b100000000001 7
#14499768
0!
#14520601
1!
b100000000000 7
#14541434
0!
#14562267
1!
b11111111111 7
#14583100
0!
#14603933
1!
b11111111110 7
#14624766
0!
#14645599
1!
b11111111101 7
#14666432
0!
#14687265
1!
b11111111100 7
#14708098
0!
#14728931
1!
b11111111011 7
#14749764
0!
#14770597
1!
b11111111010 7
#14791430
0!
#14812263
1!
b11111111001 7
#14833096
0!
#14853929
1!
b11111111000 7
#14874762
0!
#14895595
1!
b11111110111 7
#14916428
0!
#14937261
1!
b11111110110 7
#14958094
0!
#14978927
1!
b11111110101 7
#14999760
0!
#15020593
1!
b11111110100 7
#15041426
0!
#15062259
1!
b11111110011 7
#15083092
0!
#15103925
1!
b11111110010 7
#15124758
0!
#15145591
1!
b11111110001 7
#15166424
0!
#15187257
1!
b11111110000 7
#15208090
0!
#15228923
1!
b11111101111 7
#15249756
0!
#15270589
1!
b11111101110 7
#15291422
0!
#15312255
1!
b11111101101 7
#15333088
0!
#15353921
1!
b11111101100 7
#15374754
0!
#15395587
1!
b11111101011 7
#15416420
0!
#15437253
1!
b11111101010 7
#15458086
0!
#15478919
1!
b11111101001 7
#15499752
0!
#15520585
1!
b11111101000 7
#15541418
0!
#15562251
1!
b11111100111 7
#15583084
0!
#15603917
1!
b11111100110 7
#15624750
0!
#15645583
1!
b11111100101 7
#15666416
0!
#15687249
1!
b11111100100 7
#15708082
0!
#15728915
1!
b11111100011 7
#15749748
0!
#15770581
1!
b11111100010 7
#15791414
0!
#15812247
1!
b11111100001 7
#15833080
0!
#15853913
1!
b11111100000 7
#15874746
0!
#15895579
1!
b11111011111 7
#15916412
0!
#15937245
1!
b11111011110 7
#15958078
0!
#15978911
1!
b11111011101 7
#15999744
0!
#16020577
1!
b11111011100 7
#16041410
0!
#16062243
1!
b11111011011 7
#16083076
0!
#16103909
1!
b11111011010 7
#16124742
0!
#16145575
1!
b11111011001 7
#16166408
0!
#16187241
1!
b11111011000 7
#16208074
0!
#16228907
1!
b11111010111 7
#16249740
0!
#16270573
1!
b11111010110 7
#16291406
0!
#16312239
1!
b11111010101 7
#16333072
0!
#16353905
1!
b11111010100 7
#16374738
0!
#16395571
1!
b11111010011 7
#16416404
0!
#16437237
1!
b11111010010 7
#16458070
0!
#16478903
1!
b11111010001 7
#16499736
0!
#16520569
1!
b11111010000 7
#16541402
0!
#16562235
1!
b11111001111 7
#16583068
0!
#16603901
1!
b11111001110 7
#16624734
0!
#16645567
1!
b11111001101 7
#16666400
0!
#16687233
1!
b11111001100 7
#16708066
0!
#16728899
1!
b11111001011 7
#16749732
0!
#16770565
1!
b11111001010 7
#16791398
0!
#16812231
1!
b11111001001 7
#16833064
0!
#16853897
1!
b11111001000 7
#16874730
0!
#16895563
1!
b11111000111 7
#16916396
0!
#16937229
1!
b11111000110 7
#16958062
0!
#16978895
1!
b11111000101 7
#16999728
0!
#17020561
1!
b11111000100 7
#17041394
0!
#17062227
1!
b11111000011 7
#17083060
0!
#17103893
1!
b11111000010 7
#17124726
0!
#17145559
1!
b11111000001 7
#17166392
0!
#17187225
1!
b11111000000 7
#17208058
0!
#17228891
1!
b11110111111 7
#17249724
0!
#17270557
1!
b11110111110 7
#17291390
0!
#17312223
1!
b11110111101 7
#17333056
0!
#17353889
1!
b11110111100 7
#17374722
0!
#17395555
1!
b11110111011 7
#17416388
0!
#17437221
1!
b11110111010 7
#17458054
0!
#17478887
1!
b11110111001 7
#17499720
0!
#17520553
1!
b11110111000 7
#17541386
0!
#17562219
1!
b11110110111 7
#17583052
0!
#17603885
1!
b11110110110 7
#17624718
0!
#17645551
1!
b11110110101 7
#17666384
0!
#17687217
1!
b11110110100 7
#17708050
0!
#17728883
1!
b11110110011 7
#17749716
0!
#17770549
1!
b11110110010 7
#17791382
0!
#17812215
1!
b11110110001 7
#17833048
0!
#17853881
1!
b11110110000 7
#17874714
0!
#17895547
1!
b11110101111 7
#17916380
0!
#17937213
1!
b11110101110 7
#17958046
0!
#17978879
1!
b11110101101 7
#17999712
0!
#18020545
1!
b11110101100 7
#18041378
0!
#18062211
1!
b11110101011 7
#18083044
0!
#18103877
1!
b11110101010 7
#18124710
0!
#18145543
1!
b11110101001 7
#18166376
0!
#18187209
1!
b11110101000 7
#18208042
0!
#18228875
1!
b11110100111 7
#18249708
0!
#18270541
1!
b11110100110 7
#18291374
0!
#18312207
1!
b11110100101 7
#18333040
0!
#18353873
1!
b11110100100 7
#18374706
0!
#18395539
1!
b11110100011 7
#18416372
0!
#18437205
1!
b11110100010 7
#18458038
0!
#18478871
1!
b11110100001 7
#18499704
0!
#18520537
1!
b11110100000 7
#18541370
0!
#18562203
1!
b11110011111 7
#18583036
0!
#18603869
1!
b11110011110 7
#18624702
0!
#18645535
1!
b11110011101 7
#18666368
0!
#18687201
1!
b11110011100 7
#18708034
0!
#18728867
1!
b11110011011 7
#18749700
0!
#18770533
1!
b11110011010 7
#18791366
0!
#18812199
1!
b11110011001 7
#18833032
0!
#18853865
1!
b11110011000 7
#18874698
0!
#18895531
1!
b11110010111 7
#18916364
0!
#18937197
1!
b11110010110 7
#18958030
0!
#18978863
1!
b11110010101 7
#18999696
0!
#19020529
1!
b11110010100 7
#19041362
0!
#19062195
1!
b11110010011 7
#19083028
0!
#19103861
1!
b11110010010 7
#19124694
0!
#19145527
1!
b11110010001 7
#19166360
0!
#19187193
1!
b11110010000 7
#19208026
0!
#19228859
1!
b11110001111 7
#19249692
0!
#19270525
1!
b11110001110 7
#19291358
0!
#19312191
1!
b11110001101 7
#19333024
0!
#19353857
1!
b11110001100 7
#19374690
0!
#19395523
1!
b11110001011 7
#19416356
0!
#19437189
1!
b11110001010 7
#19458022
0!
#19478855
1!
b11110001001 7
#19499688
0!
#19520521
1!
b11110001000 7
#19541354
0!
#19562187
1!
b11110000111 7
#19583020
0!
#19603853
1!
b11110000110 7
#19624686
0!
#19645519
1!
b11110000101 7
#19666352
0!
#19687185
1!
b11110000100 7
#19708018
0!
#19728851
1!
b11110000011 7
#19749684
0!
#19770517
1!
b11110000010 7
#19791350
0!
#19812183
1!
b11110000001 7
#19833016
0!
#19853849
1!
b11110000000 7
#19874682
0!
#19895515
1!
b11101111111 7
#19916348
0!
#19937181
1!
b11101111110 7
#19958014
0!
#19978847
1!
b11101111101 7
#19999680
0!
#20020513
1!
b11101111100 7
#20041346
0!
#20062179
1!
b11101111011 7
#20083012
0!
#20103845
1!
b11101111010 7
#20124678
0!
#20145511
1!
b11101111001 7
#20166344
0!
#20187177
1!
b11101111000 7
#20208010
0!
#20228843
1!
b11101110111 7
#20249676
0!
#20270509
1!
b11101110110 7
#20291342
0!
#20312175
1!
b11101110101 7
#20333008
0!
#20353841
1!
b11101110100 7
#20374674
0!
#20395507
1!
b11101110011 7
#20416340
0!
#20437173
1!
b11101110010 7
#20458006
0!
#20478839
1!
b11101110001 7
#20499672
0!
#20520505
1!
b11101110000 7
#20541338
0!
#20562171
1!
b11101101111 7
#20583004
0!
#20603837
1!
b11101101110 7
#20624670
0!
#20645503
1!
b11101101101 7
#20666336
0!
#20687169
1!
b11101101100 7
#20708002
0!
#20728835
1!
b11101101011 7
#20749668
0!
#20770501
1!
b11101101010 7
#20791334
0!
#20812167
1!
b11101101001 7
#20833000
0!
#20853833
1!
b11101101000 7
#20874666
0!
#20895499
1!
b11101100111 7
#20916332
0!
#20937165
1!
b11101100110 7
#20957998
0!
#20978831
1!
b11101100101 7
#20999664
0!
#21020497
1!
b11101100100 7
#21041330
0!
#21062163
1!
b11101100011 7
#21082996
0!
#21103829
1!
b11101100010 7
#21124662
0!
#21145495
1!
b11101100001 7
#21166328
0!
#21187161
1!
b11101100000 7
#21207994
0!
#21228827
1!
b11101011111 7
#21249660
0!
#21270493
1!
b11101011110 7
#21291326
0!
#21312159
1!
b11101011101 7
#21332992
0!
#21353825
1!
b11101011100 7
#21374658
0!
#21395491
1!
b11101011011 7
#21416324
0!
#21437157
1!
b11101011010 7
#21457990
0!
#21478823
1!
b11101011001 7
#21499656
0!
#21520489
1!
b11101011000 7
#21541322
0!
#21562155
1!
b11101010111 7
#21582988
0!
#21603821
1!
b11101010110 7
#21624654
0!
#21645487
1!
b11101010101 7
#21666320
0!
#21687153
1!
b11101010100 7
#21707986
0!
#21728819
1!
b11101010011 7
#21749652
0!
#21770485
1!
b11101010010 7
#21791318
0!
#21812151
1!
b11101010001 7
#21832984
0!
#21853817
1!
b11101010000 7
#21874650
0!
#21895483
1!
b11101001111 7
#21916316
0!
#21937149
1!
b11101001110 7
#21957982
0!
#21978815
1!
b11101001101 7
#21999648
0!
#22020481
1!
b11101001100 7
#22041314
0!
#22062147
1!
b11101001011 7
#22082980
0!
#22103813
1!
b11101001010 7
#22124646
0!
#22145479
1!
b11101001001 7
#22166312
0!
#22187145
1!
b11101001000 7
#22207978
0!
#22228811
1!
b11101000111 7
#22249644
0!
#22270477
1!
b11101000110 7
#22291310
0!
#22312143
1!
b11101000101 7
#22332976
0!
#22353809
1!
b11101000100 7
#22374642
0!
#22395475
1!
b11101000011 7
#22416308
0!
#22437141
1!
b11101000010 7
#22457974
0!
#22478807
1!
b11101000001 7
#22499640
0!
#22520473
1!
b11101000000 7
#22541306
0!
#22562139
1!
b11100111111 7
#22582972
0!
#22603805
1!
b11100111110 7
#22624638
0!
#22645471
1!
b11100111101 7
#22666304
0!
#22687137
1!
b11100111100 7
#22707970
0!
#22728803
1!
b11100111011 7
#22749636
0!
#22770469
1!
b11100111010 7
#22791302
0!
#22812135
1!
b11100111001 7
#22832968
0!
#22853801
1!
b11100111000 7
#22874634
0!
#22895467
1!
b11100110111 7
#22916300
0!
#22937133
1!
b11100110110 7
#22957966
0!
#22978799
1!
b11100110101 7
#22999632
0!
#23020465
1!
b11100110100 7
#23041298
0!
#23062131
1!
b11100110011 7
#23082964
0!
#23103797
1!
b11100110010 7
#23124630
0!
#23145463
1!
b11100110001 7
#23166296
0!
#23187129
1!
b11100110000 7
#23207962
0!
#23228795
1!
b11100101111 7
#23249628
0!
#23270461
1!
b11100101110 7
#23291294
0!
#23312127
1!
b11100101101 7
#23332960
0!
#23353793
1!
b11100101100 7
#23374626
0!
#23395459
1!
b11100101011 7
#23416292
0!
#23437125
1!
b11100101010 7
#23457958
0!
#23478791
1!
b11100101001 7
#23499624
0!
#23520457
1!
b11100101000 7
#23541290
0!
#23562123
1!
b11100100111 7
#23582956
0!
#23603789
1!
b11100100110 7
#23624622
0!
#23645455
1!
b11100100101 7
#23666288
0!
#23687121
1!
b11100100100 7
#23707954
0!
#23728787
1!
b11100100011 7
#23749620
0!
#23770453
1!
b11100100010 7
#23791286
0!
#23812119
1!
b11100100001 7
#23832952
0!
#23853785
1!
b11100100000 7
#23874618
0!
#23895451
1!
b11100011111 7
#23916284
0!
#23937117
1!
b11100011110 7
#23957950
0!
#23978783
1!
b11100011101 7
#23999616
0!
#24020449
1!
b11100011100 7
#24041282
0!
#24062115
1!
b11100011011 7
#24082948
0!
#24103781
1!
b11100011010 7
#24124614
0!
#24145447
1!
b11100011001 7
#24166280
0!
#24187113
1!
b11100011000 7
#24207946
0!
#24228779
1!
b11100010111 7
#24249612
0!
#24270445
1!
b11100010110 7
#24291278
0!
#24312111
1!
b11100010101 7
#24332944
0!
#24353777
1!
b11100010100 7
#24374610
0!
#24395443
1!
b11100010011 7
#24416276
0!
#24437109
1!
b11100010010 7
#24457942
0!
#24478775
1!
b11100010001 7
#24499608
0!
#24520441
1!
b11100010000 7
#24541274
0!
#24562107
1!
b11100001111 7
#24582940
0!
#24603773
1!
b11100001110 7
#24624606
0!
