tests2_feb2022/test7_formal_verification_timer_restructured_testDesiredInterface_withExpectedBehaviour_period=1e-06.vcd
$comment Generated by Amaranth $end
$date 2022-03-02 11:56:19.758281 $end
$timescale 1 ps $end
$scope module bench $end
$scope module top $end
$var wire 1 ! clk $end
$var wire 1 " rst $end
$var wire 1 # ui__tb_fanin_flags__in_start $end
$var wire 1 $ _ui__tb_fanin_flags__in_start $end
$var wire 1 % ui__tb_fanin_flags__in_done $end
$var wire 1 & _ui__tb_fanin_flags__in_done $end
$var wire 1 ' _ui__tb_fanout_flags__trigger $end
$var wire 1 ( ui__tb_fanout_flags__trigger $end
$var wire 1 ) ui__done $end
$var wire 1 * _ui__done $end
$var wire 1 + ui__inactive $end
$var wire 1 , _ui__inactive $end
$var wire 12 - _ui__load $end
$var wire 12 . ui__load $end
$var wire 1 / ui__done$1 $end
$var wire 1 0 ui__inactive$1 $end
$var wire 12 1 ui__load$1 $end
$var string 1 2 testbench_fsm_state $end
$var string 1 3 delay_fsm_state $end
$scope module delayer $end
$var wire 1 ! clk $end
$var wire 1 " rst $end
$var wire 1 / ui__done $end
$var wire 1 0 ui__inactive $end
$var wire 12 1 ui__load $end
$var wire 1 4 _ui__done $end
$var wire 1 5 _ui__inactive $end
$var wire 12 6 _ui__load $end
$var wire 12 7 countdown $end
$upscope $end
$upscope $end
$upscope $end
$enddefinitions $end
#0
$dumpvars
0!
0"
0#
0$
0%
0&
0'
0(
0)
0*
0+
0,
b0 -
b0 .
0/
00
b0 1
sINITIAL/2 2
sINIT/0 3
04
05
b0 6
b0 7
$end
#20833
15
sSTART/0 2
1!
#41666
0!
#62499
1!
sLOADED/1 3
1$
b10000 -
10
#83332
0!
#104165
1!
1,
1#
sDONE/2 3
b0 -
b10000 1
#124998
0!
#145831
1+
b10000 6
1!
b0 1
#166664
0!
#187497
b10000 7
1!
b0 6
#208330
0!
#229163
05
b1111 7
1!
#249996
0!
#270829
00
1!
b1110 7
#291662
0!
#312495
0,
b1101 7
1!
#333328
0!
#354161
0+
b1100 7
1!
#374994
0!
#395827
b1011 7
1!
#416660
0!
#437493
b1010 7
1!
#458326
0!
#479159
b1001 7
1!
#499992
0!
#520825
b1000 7
1!
#541658
0!
#562491
b111 7
1!
#583324
0!
#604157
b110 7
1!
#624990
0!
#645823
b101 7
1!
#666656
0!
#687489
b100 7
1!
#708322
0!
#729155
b11 7
1!
#749988
0!
#770821
b10 7
1!
#791654
0!
#812487
b1 7
1!
#833320
0!
#854153
14
b0 7
1!
#874986
0!
#895819
1/
04
1!
15
#916652
0!
#937485
0/
1*
1!
10
#958318
0!
#979151
1)
0*
1!
1,
sDONE/1 2
#999984
0!
#1020817
0)
1!
0$
1+
1&
#1041650
0!
#1062483
1%
1!
0#
