tests2_feb2022/test7_formal_verification_timer_restructured_testDesiredInterface_withExpectedBehaviour_period=1e-05.vcd
$comment Generated by Amaranth $end
$date 2022-03-02 11:56:19.704197 $end
$timescale 1 ps $end
$scope module bench $end
$scope module top $end
$var wire 1 ! clk $end
$var wire 1 " rst $end
$var wire 1 # ui__tb_fanin_flags__in_start $end
$var wire 1 $ _ui__tb_fanin_flags__in_start $end
$var wire 1 % ui__tb_fanin_flags__in_done $end
$var wire 1 & _ui__tb_fanin_flags__in_done $end
$var wire 1 ' _ui__tb_fanout_flags__trigger $end
$var wire 1 ( ui__tb_fanout_flags__trigger $end
$var wire 1 ) ui__done $end
$var wire 1 * _ui__done $end
$var wire 1 + ui__inactive $end
$var wire 1 , _ui__inactive $end
$var wire 12 - _ui__load $end
$var wire 12 . ui__load $end
$var wire 1 / ui__done$1 $end
$var wire 1 0 ui__inactive$1 $end
$var wire 12 1 ui__load$1 $end
$var string 1 2 testbench_fsm_state $end
$var string 1 3 delay_fsm_state $end
$scope module delayer $end
$var wire 1 ! clk $end
$var wire 1 " rst $end
$var wire 1 / ui__done $end
$var wire 1 0 ui__inactive $end
$var wire 12 1 ui__load $end
$var wire 1 4 _ui__done $end
$var wire 1 5 _ui__inactive $end
$var wire 12 6 _ui__load $end
$var wire 12 7 countdown $end
$upscope $end
$upscope $end
$upscope $end
$enddefinitions $end
#0
$dumpvars
0!
0"
0#
0$
0%
0&
0'
0(
0)
0*
0+
0,
b0 -
b0 .
0/
00
b0 1
sINITIAL/2 2
sINIT/0 3
04
05
b0 6
b0 7
$end
#20833
15
1!
sSTART/0 2
#41666
0!
#62499
10
b11101001 -
1!
sLOADED/1 3
1$
#83332
0!
#104165
b0 -
1!
sDONE/2 3
b11101001 1
1#
1,
#124998
0!
#145831
b11101001 6
b0 1
1!
1+
#166664
0!
#187497
b0 6
b11101001 7
1!
#208330
0!
#229163
b11101000 7
05
1!
#249996
0!
#270829
00
b11100111 7
1!
#291662
0!
#312495
b11100110 7
1!
0,
#333328
0!
#354161
b11100101 7
1!
0+
#374994
0!
#395827
b11100100 7
1!
#416660
0!
#437493
b11100011 7
1!
#458326
0!
#479159
b11100010 7
1!
#499992
0!
#520825
b11100001 7
1!
#541658
0!
#562491
b11100000 7
1!
#583324
0!
#604157
b11011111 7
1!
#624990
0!
#645823
b11011110 7
1!
#666656
0!
#687489
b11011101 7
1!
#708322
0!
#729155
b11011100 7
1!
#749988
0!
#770821
b11011011 7
1!
#791654
0!
#812487
b11011010 7
1!
#833320
0!
#854153
b11011001 7
1!
#874986
0!
#895819
b11011000 7
1!
#916652
0!
#937485
b11010111 7
1!
#958318
0!
#979151
b11010110 7
1!
#999984
0!
#1020817
b11010101 7
1!
#1041650
0!
#1062483
b11010100 7
1!
#1083316
0!
#1104149
b11010011 7
1!
#1124982
0!
#1145815
b11010010 7
1!
#1166648
0!
#1187481
b11010001 7
1!
#1208314
0!
#1229147
b11010000 7
1!
#1249980
0!
#1270813
b11001111 7
1!
#1291646
0!
#1312479
b11001110 7
1!
#1333312
0!
#1354145
b11001101 7
1!
#1374978
0!
#1395811
b11001100 7
1!
#1416644
0!
#1437477
b11001011 7
1!
#1458310
0!
#1479143
b11001010 7
1!
#1499976
0!
#1520809
b11001001 7
1!
#1541642
0!
#1562475
b11001000 7
1!
#1583308
0!
#1604141
b11000111 7
1!
#1624974
0!
#1645807
b11000110 7
1!
#1666640
0!
#1687473
b11000101 7
1!
#1708306
0!
#1729139
b11000100 7
1!
#1749972
0!
#1770805
b11000011 7
1!
#1791638
0!
#1812471
b11000010 7
1!
#1833304
0!
#1854137
b11000001 7
1!
#1874970
0!
#1895803
b11000000 7
1!
#1916636
0!
#1937469
b10111111 7
1!
#1958302
0!
#1979135
b10111110 7
1!
#1999968
0!
#2020801
b10111101 7
1!
#2041634
0!
#2062467
b10111100 7
1!
#2083300
0!
#2104133
b10111011 7
1!
#2124966
0!
#2145799
b10111010 7
1!
#2166632
0!
#2187465
b10111001 7
1!
#2208298
0!
#2229131
b10111000 7
1!
#2249964
0!
#2270797
b10110111 7
1!
#2291630
0!
#2312463
b10110110 7
1!
#2333296
0!
#2354129
b10110101 7
1!
#2374962
0!
#2395795
b10110100 7
1!
#2416628
0!
#2437461
b10110011 7
1!
#2458294
0!
#2479127
b10110010 7
1!
#2499960
0!
#2520793
b10110001 7
1!
#2541626
0!
#2562459
b10110000 7
1!
#2583292
0!
#2604125
b10101111 7
1!
#2624958
0!
#2645791
b10101110 7
1!
#2666624
0!
#2687457
b10101101 7
1!
#2708290
0!
#2729123
b10101100 7
1!
#2749956
0!
#2770789
b10101011 7
1!
#2791622
0!
#2812455
b10101010 7
1!
#2833288
0!
#2854121
b10101001 7
1!
#2874954
0!
#2895787
b10101000 7
1!
#2916620
0!
#2937453
b10100111 7
1!
#2958286
0!
#2979119
b10100110 7
1!
#2999952
0!
#3020785
b10100101 7
1!
#3041618
0!
#3062451
b10100100 7
1!
#3083284
0!
#3104117
b10100011 7
1!
#3124950
0!
#3145783
b10100010 7
1!
#3166616
0!
#3187449
b10100001 7
1!
#3208282
0!
#3229115
b10100000 7
1!
#3249948
0!
#3270781
b10011111 7
1!
#3291614
0!
#3312447
b10011110 7
1!
#3333280
0!
#3354113
b10011101 7
1!
#3374946
0!
#3395779
b10011100 7
1!
#3416612
0!
#3437445
b10011011 7
1!
#3458278
0!
#3479111
b10011010 7
1!
#3499944
0!
#3520777
b10011001 7
1!
#3541610
0!
#3562443
b10011000 7
1!
#3583276
0!
#3604109
b10010111 7
1!
#3624942
0!
#3645775
b10010110 7
1!
#3666608
0!
#3687441
b10010101 7
1!
#3708274
0!
#3729107
b10010100 7
1!
#3749940
0!
#3770773
b10010011 7
1!
#3791606
0!
#3812439
b10010010 7
1!
#3833272
0!
#3854105
b10010001 7
1!
#3874938
0!
#3895771
b10010000 7
1!
#3916604
0!
#3937437
b10001111 7
1!
#3958270
0!
#3979103
b10001110 7
1!
#3999936
0!
#4020769
b10001101 7
1!
#4041602
0!
#4062435
b10001100 7
1!
#4083268
0!
#4104101
b10001011 7
1!
#4124934
0!
#4145767
b10001010 7
1!
#4166600
0!
#4187433
b10001001 7
1!
#4208266
0!
#4229099
b10001000 7
1!
#4249932
0!
#4270765
b10000111 7
1!
#4291598
0!
#4312431
b10000110 7
1!
#4333264
0!
#4354097
b10000101 7
1!
#4374930
0!
#4395763
b10000100 7
1!
#4416596
0!
#4437429
b10000011 7
1!
#4458262
0!
#4479095
b10000010 7
1!
#4499928
0!
#4520761
b10000001 7
1!
#4541594
0!
#4562427
b10000000 7
1!
#4583260
0!
#4604093
b1111111 7
1!
#4624926
0!
#4645759
b1111110 7
1!
#4666592
0!
#4687425
b1111101 7
1!
#4708258
0!
#4729091
b1111100 7
1!
#4749924
0!
#4770757
b1111011 7
1!
#4791590
0!
#4812423
b1111010 7
1!
#4833256
0!
#4854089
b1111001 7
1!
#4874922
0!
#4895755
b1111000 7
1!
#4916588
0!
#4937421
b1110111 7
1!
#4958254
0!
#4979087
b1110110 7
1!
#4999920
0!
#5020753
b1110101 7
1!
#5041586
0!
#5062419
b1110100 7
1!
#5083252
0!
#5104085
b1110011 7
1!
#5124918
0!
#5145751
b1110010 7
1!
#5166584
0!
#5187417
b1110001 7
1!
#5208250
0!
#5229083
b1110000 7
1!
#5249916
0!
#5270749
b1101111 7
1!
#5291582
0!
#5312415
b1101110 7
1!
#5333248
0!
#5354081
b1101101 7
1!
#5374914
0!
#5395747
b1101100 7
1!
#5416580
0!
#5437413
b1101011 7
1!
#5458246
0!
#5479079
b1101010 7
1!
#5499912
0!
#5520745
b1101001 7
1!
#5541578
0!
#5562411
b1101000 7
1!
#5583244
0!
#5604077
b1100111 7
1!
#5624910
0!
#5645743
b1100110 7
1!
#5666576
0!
#5687409
b1100101 7
1!
#5708242
0!
#5729075
b1100100 7
1!
#5749908
0!
#5770741
b1100011 7
1!
#5791574
0!
#5812407
b1100010 7
1!
#5833240
0!
#5854073
b1100001 7
1!
#5874906
0!
#5895739
b1100000 7
1!
#5916572
0!
#5937405
b1011111 7
1!
#5958238
0!
#5979071
b1011110 7
1!
#5999904
0!
#6020737
b1011101 7
1!
#6041570
0!
#6062403
b1011100 7
1!
#6083236
0!
#6104069
b1011011 7
1!
#6124902
0!
#6145735
b1011010 7
1!
#6166568
0!
#6187401
b1011001 7
1!
#6208234
0!
#6229067
b1011000 7
1!
#6249900
0!
#6270733
b1010111 7
1!
#6291566
0!
#6312399
b1010110 7
1!
#6333232
0!
#6354065
b1010101 7
1!
#6374898
0!
#6395731
b1010100 7
1!
#6416564
0!
#6437397
b1010011 7
1!
#6458230
0!
#6479063
b1010010 7
1!
#6499896
0!
#6520729
b1010001 7
1!
#6541562
0!
#6562395
b1010000 7
1!
#6583228
0!
#6604061
b1001111 7
1!
#6624894
0!
#6645727
b1001110 7
1!
#6666560
0!
#6687393
b1001101 7
1!
#6708226
0!
#6729059
b1001100 7
1!
#6749892
0!
#6770725
b1001011 7
1!
#6791558
0!
#6812391
b1001010 7
1!
#6833224
0!
#6854057
b1001001 7
1!
#6874890
0!
#6895723
b1001000 7
1!
#6916556
0!
#6937389
b1000111 7
1!
#6958222
0!
#6979055
b1000110 7
1!
#6999888
0!
#7020721
b1000101 7
1!
#7041554
0!
#7062387
b1000100 7
1!
#7083220
0!
#7104053
b1000011 7
1!
#7124886
0!
#7145719
b1000010 7
1!
#7166552
0!
#7187385
b1000001 7
1!
#7208218
0!
#7229051
b1000000 7
1!
#7249884
0!
#7270717
b111111 7
1!
#7291550
0!
#7312383
b111110 7
1!
#7333216
0!
#7354049
b111101 7
1!
#7374882
0!
#7395715
b111100 7
1!
#7416548
0!
#7437381
b111011 7
1!
#7458214
0!
#7479047
b111010 7
1!
#7499880
0!
#7520713
b111001 7
1!
#7541546
0!
#7562379
b111000 7
1!
#7583212
0!
#7604045
b110111 7
1!
#7624878
0!
#7645711
b110110 7
1!
#7666544
0!
#7687377
b110101 7
1!
#7708210
0!
#7729043
b110100 7
1!
#7749876
0!
#7770709
b110011 7
1!
#7791542
0!
#7812375
b110010 7
1!
#7833208
0!
#7854041
b110001 7
1!
#7874874
0!
#7895707
b110000 7
1!
#7916540
0!
#7937373
b101111 7
1!
#7958206
0!
#7979039
b101110 7
1!
#7999872
0!
#8020705
b101101 7
1!
#8041538
0!
#8062371
b101100 7
1!
#8083204
0!
#8104037
b101011 7
1!
#8124870
0!
#8145703
b101010 7
1!
#8166536
0!
#8187369
b101001 7
1!
#8208202
0!
#8229035
b101000 7
1!
#8249868
0!
#8270701
b100111 7
1!
#8291534
0!
#8312367
b100110 7
1!
#8333200
0!
#8354033
b100101 7
1!
#8374866
0!
#8395699
b100100 7
1!
#8416532
0!
#8437365
b100011 7
1!
#8458198
0!
#8479031
b100010 7
1!
#8499864
0!
#8520697
b100001 7
1!
#8541530
0!
#8562363
b100000 7
1!
#8583196
0!
#8604029
b11111 7
1!
#8624862
0!
#8645695
b11110 7
1!
#8666528
0!
#8687361
b11101 7
1!
#8708194
0!
#8729027
b11100 7
1!
#8749860
0!
#8770693
b11011 7
1!
#8791526
0!
#8812359
b11010 7
1!
#8833192
0!
#8854025
b11001 7
1!
#8874858
0!
#8895691
b11000 7
1!
#8916524
0!
#8937357
b10111 7
1!
#8958190
0!
#8979023
b10110 7
1!
#8999856
0!
#9020689
b10101 7
1!
#9041522
0!
#9062355
b10100 7
1!
#9083188
0!
#9104021
b10011 7
1!
#9124854
0!
#9145687
b10010 7
1!
#9166520
0!
#9187353
b10001 7
1!
#9208186
0!
#9229019
b10000 7
1!
#9249852
0!
#9270685
b1111 7
1!
#9291518
0!
#9312351
b1110 7
1!
#9333184
0!
#9354017
b1101 7
1!
#9374850
0!
#9395683
b1100 7
1!
#9416516
0!
#9437349
b1011 7
1!
#9458182
0!
#9479015
b1010 7
1!
#9499848
0!
#9520681
b1001 7
1!
#9541514
0!
#9562347
b1000 7
1!
#9583180
0!
#9604013
b111 7
1!
#9624846
0!
#9645679
b110 7
1!
#9666512
0!
#9687345
b101 7
1!
#9708178
0!
#9729011
b100 7
1!
#9749844
0!
#9770677
b11 7
1!
#9791510
0!
#9812343
b10 7
1!
#9833176
0!
#9854009
b1 7
1!
#9874842
0!
#9895675
b0 7
1!
14
#9916508
0!
#9937341
15
1/
1!
04
#9958174
0!
#9979007
10
0/
1!
1*
#9999840
0!
#10020673
1!
0*
1,
sDONE/1 2
1)
#10041506
0!
#10062339
1&
1!
0$
1+
0)
#10083172
0!
#10104005
1%
1!
0#
