tests2_feb2022/test6_formal_verification_timer_tryToTest_timerTest/engine_0/trace.vcd
$version Generated by Yosys-SMTBMC $end
$timescale 1ns $end
$var integer 32 t smt_step $end
$var event 1 ! smt_clock $end
$scope module top $end
$var wire 1 n0 clk $end
$var wire 32 n1 debug__count$4 $end
$scope module delayer $end
$var wire 1 n2 clk $end
$var wire 32 n3 counter_out $end
$var wire 1 n4 done $end
$var wire 2 n5 fsm_state $end
$var wire 32 n6 reload $end
$var wire 1 n7 rst $end
$var wire 1 n8 start $end
$upscope $end
$var wire 32 n9 delayer_counter_out $end
$var wire 1 n10 delayer_done $end
$var wire 1 n11 delayer_start $end
$var wire 32 n12 reload $end
$var wire 1 n13 rst $end
$var wire 1 n14 ui__done$2 $end
$var wire 1 n15 ui__start $end
$var wire 1 n16 ui__start$1 $end
$upscope $end
$enddefinitions $end
#0
1!
b00000000000000000000000000000000 t
b1 n0
b1 n2
b00000000000000000000000000000000 n1
b00000000000000000000000000000000 n3
b0 n4
b01 n5
b10000000000000000000000000000000 n6
b0 n7
b0 n8
b00000000000000000000000000000000 n9
b0 n10
b0 n11
b10000000000000000000000000000000 n12
b0 n13
b0 n14
b0 n15
b0 n16
#5
b0 n0
b0 n2
#10
1!
b00000000000000000000000000000001 t
b1 n0
b1 n2
b00000000000000000000000000000000 n1
b00000000000000000000000000000101 n3
b0 n4
b01 n5
b00000000000000000000000000000000 n6
b0 n7
b0 n8
b00000000000000000000000000000101 n9
b0 n10
b0 n11
b00000000000000000000000000000000 n12
b0 n13
b0 n14
b0 n15
b0 n16
#15
b0 n0
b0 n2
#20
1!
b00000000000000000000000000000010 t
b1 n0
b1 n2
b00000000000000000000000000000101 n1
b00000000000000000000000000000101 n3
b0 n4
b01 n5
b00000000000000000000000000000000 n6
b0 n7
b0 n8
b00000000000000000000000000000101 n9
b0 n10
b0 n11
b00000000000000000000000000000000 n12
b0 n13
b0 n14
b0 n15
b0 n16
#25
b0 n0
b0 n2
#30
1!
b00000000000000000000000000000011 t
b1 n0
b1 n2
b00000000000000000000000000000101 n1
b00000000000000000000000000000101 n3
b0 n4
b01 n5
b00000000000000000000000000000000 n6
b0 n7
b0 n8
b00000000000000000000000000000101 n9
b0 n10
b0 n11
b00000000000000000000000000000000 n12
b0 n13
b0 n14
b0 n15
b0 n16
#35
b0 n0
b0 n2
#40
1!
b00000000000000000000000000000100 t
b1 n0
b1 n2
